^Z:\VISUALSTUDIO ПРОЕКТЫ\HELLOWORLD\DEBUG\HELLOWORLD.OBJ
Z:\VISUALSTUDIO проекты\HELLOWORLD\DEBUG\HELLOWORLD.EXE
Z:\VISUALSTUDIO проекты\HELLOWORLD\DEBUG\HELLOWORLD.ILK
Z:\VISUALSTUDIO ПРОЕКТЫ\HELLOWORLD\DEBUG\HELLOWORLD.PDB
